%YAML 1.1
%TAG !u! tag:unity3d.com,2011:
--- !u!74 &7400000
AnimationClip:
  m_ObjectHideFlags: 0
  m_CorrespondingSourceObject: {fileID: 0}
  m_PrefabInstance: {fileID: 0}
  m_PrefabAsset: {fileID: 0}
  m_Name: Attack
  serializedVersion: 6
  m_Legacy: 0
  m_Compressed: 0
  m_UseHighQualityCurve: 1
  m_RotationCurves: []
  m_CompressedRotationCurves: []
  m_EulerCurves: []
  m_PositionCurves: []
  m_ScaleCurves: []
  m_FloatCurves: []
  m_PPtrCurves:
  - curve:
    - time: 0
      value: {fileID: 21300000, guid: 9037e6062fc2ef84d8442e1c04194247, type: 3}
    - time: 0.033333335
      value: {fileID: 21300000, guid: 60ccd0bcb40b2814fa7e65073b01ef24, type: 3}
    - time: 0.06666667
      value: {fileID: 21300000, guid: a0ab1175612429e42a63a63c07abc39e, type: 3}
    - time: 0.1
      value: {fileID: 21300000, guid: 457289245ad2b0e44bfa346462e9ff1b, type: 3}
    - time: 0.13333334
      value: {fileID: 21300000, guid: da48261c717aa534db5181df06fc2115, type: 3}
    - time: 0.16666667
      value: {fileID: 21300000, guid: 1ab4fd447bdc5e74b9fe0cd307fad2ac, type: 3}
    - time: 0.2
      value: {fileID: 21300000, guid: e2861b0f195279648b57425807443c40, type: 3}
    - time: 0.23333333
      value: {fileID: 21300000, guid: f7105e042b5001f4f981f2fe65fa5bff, type: 3}
    - time: 0.26666668
      value: {fileID: 21300000, guid: 682d97552b8d28944b6e71a0e78bdbe9, type: 3}
    - time: 0.3
      value: {fileID: 21300000, guid: 5eaa63829b1e57741abcb16de7056e90, type: 3}
    - time: 0.33333334
      value: {fileID: 21300000, guid: b5a552a233200604dac56a32c9eb913e, type: 3}
    - time: 0.36666667
      value: {fileID: 21300000, guid: 51e635c86ec1b09458010538a84e8188, type: 3}
    attribute: m_Sprite
    path: 
    classID: 212
    script: {fileID: 0}
  m_SampleRate: 60
  m_WrapMode: 0
  m_Bounds:
    m_Center: {x: 0, y: 0, z: 0}
    m_Extent: {x: 0, y: 0, z: 0}
  m_ClipBindingConstant:
    genericBindings:
    - serializedVersion: 2
      path: 0
      attribute: 0
      script: {fileID: 0}
      typeID: 212
      customType: 23
      isPPtrCurve: 1
    pptrCurveMapping:
    - {fileID: 21300000, guid: 9037e6062fc2ef84d8442e1c04194247, type: 3}
    - {fileID: 21300000, guid: 60ccd0bcb40b2814fa7e65073b01ef24, type: 3}
    - {fileID: 21300000, guid: a0ab1175612429e42a63a63c07abc39e, type: 3}
    - {fileID: 21300000, guid: 457289245ad2b0e44bfa346462e9ff1b, type: 3}
    - {fileID: 21300000, guid: da48261c717aa534db5181df06fc2115, type: 3}
    - {fileID: 21300000, guid: 1ab4fd447bdc5e74b9fe0cd307fad2ac, type: 3}
    - {fileID: 21300000, guid: e2861b0f195279648b57425807443c40, type: 3}
    - {fileID: 21300000, guid: f7105e042b5001f4f981f2fe65fa5bff, type: 3}
    - {fileID: 21300000, guid: 682d97552b8d28944b6e71a0e78bdbe9, type: 3}
    - {fileID: 21300000, guid: 5eaa63829b1e57741abcb16de7056e90, type: 3}
    - {fileID: 21300000, guid: b5a552a233200604dac56a32c9eb913e, type: 3}
    - {fileID: 21300000, guid: 51e635c86ec1b09458010538a84e8188, type: 3}
  m_AnimationClipSettings:
    serializedVersion: 2
    m_AdditiveReferencePoseClip: {fileID: 0}
    m_AdditiveReferencePoseTime: 0
    m_StartTime: 0
    m_StopTime: 0.38333336
    m_OrientationOffsetY: 0
    m_Level: 0
    m_CycleOffset: 0
    m_HasAdditiveReferencePose: 0
    m_LoopTime: 0
    m_LoopBlend: 0
    m_LoopBlendOrientation: 0
    m_LoopBlendPositionY: 0
    m_LoopBlendPositionXZ: 0
    m_KeepOriginalOrientation: 0
    m_KeepOriginalPositionY: 1
    m_KeepOriginalPositionXZ: 0
    m_HeightFromFeet: 0
    m_Mirror: 0
  m_EditorCurves: []
  m_EulerEditorCurves: []
  m_HasGenericRootTransform: 0
  m_HasMotionFloatCurves: 0
  m_Events: []
