%YAML 1.1
%TAG !u! tag:unity3d.com,2011:
--- !u!74 &7400000
AnimationClip:
  m_ObjectHideFlags: 0
  m_CorrespondingSourceObject: {fileID: 0}
  m_PrefabInstance: {fileID: 0}
  m_PrefabAsset: {fileID: 0}
  m_Name: Walking
  serializedVersion: 6
  m_Legacy: 0
  m_Compressed: 0
  m_UseHighQualityCurve: 1
  m_RotationCurves: []
  m_CompressedRotationCurves: []
  m_EulerCurves: []
  m_PositionCurves: []
  m_ScaleCurves: []
  m_FloatCurves: []
  m_PPtrCurves:
  - curve:
    - time: 0
      value: {fileID: 21300000, guid: e687c48e3b305ef45b8e92926de5ac36, type: 3}
    - time: 0.033333335
      value: {fileID: 21300000, guid: 18adac085e8d1b34294568f69e965044, type: 3}
    - time: 0.06666667
      value: {fileID: 21300000, guid: 7f46b82392abfd4479a0ad9e9794f652, type: 3}
    - time: 0.1
      value: {fileID: 21300000, guid: 5c5294f64bb3b044d869e296aa19b14e, type: 3}
    - time: 0.13333334
      value: {fileID: 21300000, guid: ba05413117a80ce409fc651dc4119b87, type: 3}
    - time: 0.16666667
      value: {fileID: 21300000, guid: 66ae412cfe00305449df49d28843a5cc, type: 3}
    - time: 0.2
      value: {fileID: 21300000, guid: 54762329622c3bf47ac0076f57bd307e, type: 3}
    - time: 0.23333333
      value: {fileID: 21300000, guid: e0c0c09e3aecb8c4787a1b1b48bebef5, type: 3}
    - time: 0.26666668
      value: {fileID: 21300000, guid: 2c615212f057e0c4194edd1fb3687c87, type: 3}
    - time: 0.3
      value: {fileID: 21300000, guid: ec664fb371551dd4585e0102e0f27166, type: 3}
    - time: 0.33333334
      value: {fileID: 21300000, guid: 00120123d5636734988a1224c0864fa1, type: 3}
    - time: 0.36666667
      value: {fileID: 21300000, guid: 0dbe06dee32bb4a4e81bb0641bb63105, type: 3}
    - time: 0.4
      value: {fileID: 21300000, guid: 303b6976bccb7b7408bbdf573b017a5f, type: 3}
    - time: 0.43333334
      value: {fileID: 21300000, guid: 168145d5715f9714fb903d513a0efab2, type: 3}
    - time: 0.46666667
      value: {fileID: 21300000, guid: 4729daaff8ad5284b810711b236533ae, type: 3}
    - time: 0.5
      value: {fileID: 21300000, guid: 6a37f9079219df441be1e681240bac22, type: 3}
    - time: 0.53333336
      value: {fileID: 21300000, guid: cdabe0417b2097a458f54bc000aa79c7, type: 3}
    - time: 0.56666666
      value: {fileID: 21300000, guid: ad7e3a39cee531943aa493b6a714a13d, type: 3}
    - time: 0.6
      value: {fileID: 21300000, guid: e9136beb34d1eaf449d9b6b77ea925ec, type: 3}
    - time: 0.6333333
      value: {fileID: 21300000, guid: 286bc3265dc071c45acd4106153909c3, type: 3}
    - time: 0.6666667
      value: {fileID: 21300000, guid: 0b36ce31c4933e047a5ca0b1f6e4a958, type: 3}
    - time: 0.7
      value: {fileID: 21300000, guid: 8fe4ace535e8441488d48d2a9e63bb53, type: 3}
    - time: 0.73333335
      value: {fileID: 21300000, guid: 590f4558098b1e84aab6158e97528ab5, type: 3}
    - time: 0.76666665
      value: {fileID: 21300000, guid: 81de8d94162eb324db7ec080d86a50c6, type: 3}
    attribute: m_Sprite
    path: 
    classID: 212
    script: {fileID: 0}
  m_SampleRate: 60
  m_WrapMode: 0
  m_Bounds:
    m_Center: {x: 0, y: 0, z: 0}
    m_Extent: {x: 0, y: 0, z: 0}
  m_ClipBindingConstant:
    genericBindings:
    - serializedVersion: 2
      path: 0
      attribute: 0
      script: {fileID: 0}
      typeID: 212
      customType: 23
      isPPtrCurve: 1
    pptrCurveMapping:
    - {fileID: 21300000, guid: e687c48e3b305ef45b8e92926de5ac36, type: 3}
    - {fileID: 21300000, guid: 18adac085e8d1b34294568f69e965044, type: 3}
    - {fileID: 21300000, guid: 7f46b82392abfd4479a0ad9e9794f652, type: 3}
    - {fileID: 21300000, guid: 5c5294f64bb3b044d869e296aa19b14e, type: 3}
    - {fileID: 21300000, guid: ba05413117a80ce409fc651dc4119b87, type: 3}
    - {fileID: 21300000, guid: 66ae412cfe00305449df49d28843a5cc, type: 3}
    - {fileID: 21300000, guid: 54762329622c3bf47ac0076f57bd307e, type: 3}
    - {fileID: 21300000, guid: e0c0c09e3aecb8c4787a1b1b48bebef5, type: 3}
    - {fileID: 21300000, guid: 2c615212f057e0c4194edd1fb3687c87, type: 3}
    - {fileID: 21300000, guid: ec664fb371551dd4585e0102e0f27166, type: 3}
    - {fileID: 21300000, guid: 00120123d5636734988a1224c0864fa1, type: 3}
    - {fileID: 21300000, guid: 0dbe06dee32bb4a4e81bb0641bb63105, type: 3}
    - {fileID: 21300000, guid: 303b6976bccb7b7408bbdf573b017a5f, type: 3}
    - {fileID: 21300000, guid: 168145d5715f9714fb903d513a0efab2, type: 3}
    - {fileID: 21300000, guid: 4729daaff8ad5284b810711b236533ae, type: 3}
    - {fileID: 21300000, guid: 6a37f9079219df441be1e681240bac22, type: 3}
    - {fileID: 21300000, guid: cdabe0417b2097a458f54bc000aa79c7, type: 3}
    - {fileID: 21300000, guid: ad7e3a39cee531943aa493b6a714a13d, type: 3}
    - {fileID: 21300000, guid: e9136beb34d1eaf449d9b6b77ea925ec, type: 3}
    - {fileID: 21300000, guid: 286bc3265dc071c45acd4106153909c3, type: 3}
    - {fileID: 21300000, guid: 0b36ce31c4933e047a5ca0b1f6e4a958, type: 3}
    - {fileID: 21300000, guid: 8fe4ace535e8441488d48d2a9e63bb53, type: 3}
    - {fileID: 21300000, guid: 590f4558098b1e84aab6158e97528ab5, type: 3}
    - {fileID: 21300000, guid: 81de8d94162eb324db7ec080d86a50c6, type: 3}
  m_AnimationClipSettings:
    serializedVersion: 2
    m_AdditiveReferencePoseClip: {fileID: 0}
    m_AdditiveReferencePoseTime: 0
    m_StartTime: 0
    m_StopTime: 0.7833333
    m_OrientationOffsetY: 0
    m_Level: 0
    m_CycleOffset: 0
    m_HasAdditiveReferencePose: 0
    m_LoopTime: 1
    m_LoopBlend: 0
    m_LoopBlendOrientation: 0
    m_LoopBlendPositionY: 0
    m_LoopBlendPositionXZ: 0
    m_KeepOriginalOrientation: 0
    m_KeepOriginalPositionY: 1
    m_KeepOriginalPositionXZ: 0
    m_HeightFromFeet: 0
    m_Mirror: 0
  m_EditorCurves: []
  m_EulerEditorCurves: []
  m_HasGenericRootTransform: 0
  m_HasMotionFloatCurves: 0
  m_Events: []
