%YAML 1.1
%TAG !u! tag:unity3d.com,2011:
--- !u!74 &7400000
AnimationClip:
  m_ObjectHideFlags: 0
  m_CorrespondingSourceObject: {fileID: 0}
  m_PrefabInstance: {fileID: 0}
  m_PrefabAsset: {fileID: 0}
  m_Name: Attacking
  serializedVersion: 6
  m_Legacy: 0
  m_Compressed: 0
  m_UseHighQualityCurve: 1
  m_RotationCurves: []
  m_CompressedRotationCurves: []
  m_EulerCurves: []
  m_PositionCurves: []
  m_ScaleCurves: []
  m_FloatCurves: []
  m_PPtrCurves:
  - curve:
    - time: 0
      value: {fileID: 21300000, guid: 1eb59a3aeb041e440a675086e8dcc200, type: 3}
    - time: 0.033333335
      value: {fileID: 21300000, guid: 615440b59e953ed4c9a282e8f31e1ddc, type: 3}
    - time: 0.06666667
      value: {fileID: 21300000, guid: 8e945d79b4b5a484b9fec98566b260ca, type: 3}
    - time: 0.1
      value: {fileID: 21300000, guid: 94272845785e35748b8bd5a666791f8a, type: 3}
    - time: 0.13333334
      value: {fileID: 21300000, guid: ccf2c2abe8245a044a63332fadbc1034, type: 3}
    - time: 0.16666667
      value: {fileID: 21300000, guid: 6ce097ad98d5995439d956ea3650c972, type: 3}
    - time: 0.2
      value: {fileID: 21300000, guid: 19ea062a31bae314b8bc0be2db191cb1, type: 3}
    - time: 0.23333333
      value: {fileID: 21300000, guid: 2b8da367ccc353949b20c4ac7a22c669, type: 3}
    - time: 0.26666668
      value: {fileID: 21300000, guid: d3fa467fd6ac772448a3b767ce786e5f, type: 3}
    - time: 0.3
      value: {fileID: 21300000, guid: 9bec91264ca1f2747b508b413ba5ebe4, type: 3}
    - time: 0.33333334
      value: {fileID: 21300000, guid: e7e5071f22554bc4495851124fc82983, type: 3}
    - time: 0.36666667
      value: {fileID: 21300000, guid: 3104d2b8de68b964f95b341ba0ff8bf1, type: 3}
    attribute: m_Sprite
    path: 
    classID: 212
    script: {fileID: 0}
  m_SampleRate: 60
  m_WrapMode: 0
  m_Bounds:
    m_Center: {x: 0, y: 0, z: 0}
    m_Extent: {x: 0, y: 0, z: 0}
  m_ClipBindingConstant:
    genericBindings:
    - serializedVersion: 2
      path: 0
      attribute: 0
      script: {fileID: 0}
      typeID: 212
      customType: 23
      isPPtrCurve: 1
    pptrCurveMapping:
    - {fileID: 21300000, guid: 1eb59a3aeb041e440a675086e8dcc200, type: 3}
    - {fileID: 21300000, guid: 615440b59e953ed4c9a282e8f31e1ddc, type: 3}
    - {fileID: 21300000, guid: 8e945d79b4b5a484b9fec98566b260ca, type: 3}
    - {fileID: 21300000, guid: 94272845785e35748b8bd5a666791f8a, type: 3}
    - {fileID: 21300000, guid: ccf2c2abe8245a044a63332fadbc1034, type: 3}
    - {fileID: 21300000, guid: 6ce097ad98d5995439d956ea3650c972, type: 3}
    - {fileID: 21300000, guid: 19ea062a31bae314b8bc0be2db191cb1, type: 3}
    - {fileID: 21300000, guid: 2b8da367ccc353949b20c4ac7a22c669, type: 3}
    - {fileID: 21300000, guid: d3fa467fd6ac772448a3b767ce786e5f, type: 3}
    - {fileID: 21300000, guid: 9bec91264ca1f2747b508b413ba5ebe4, type: 3}
    - {fileID: 21300000, guid: e7e5071f22554bc4495851124fc82983, type: 3}
    - {fileID: 21300000, guid: 3104d2b8de68b964f95b341ba0ff8bf1, type: 3}
  m_AnimationClipSettings:
    serializedVersion: 2
    m_AdditiveReferencePoseClip: {fileID: 0}
    m_AdditiveReferencePoseTime: 0
    m_StartTime: 0
    m_StopTime: 0.38333336
    m_OrientationOffsetY: 0
    m_Level: 0
    m_CycleOffset: 0
    m_HasAdditiveReferencePose: 0
    m_LoopTime: 0
    m_LoopBlend: 0
    m_LoopBlendOrientation: 0
    m_LoopBlendPositionY: 0
    m_LoopBlendPositionXZ: 0
    m_KeepOriginalOrientation: 0
    m_KeepOriginalPositionY: 1
    m_KeepOriginalPositionXZ: 0
    m_HeightFromFeet: 0
    m_Mirror: 0
  m_EditorCurves: []
  m_EulerEditorCurves: []
  m_HasGenericRootTransform: 0
  m_HasMotionFloatCurves: 0
  m_Events: []
