%YAML 1.1
%TAG !u! tag:unity3d.com,2011:
--- !u!74 &7400000
AnimationClip:
  m_ObjectHideFlags: 0
  m_CorrespondingSourceObject: {fileID: 0}
  m_PrefabInstance: {fileID: 0}
  m_PrefabAsset: {fileID: 0}
  m_Name: Dying
  serializedVersion: 6
  m_Legacy: 0
  m_Compressed: 0
  m_UseHighQualityCurve: 1
  m_RotationCurves: []
  m_CompressedRotationCurves: []
  m_EulerCurves: []
  m_PositionCurves: []
  m_ScaleCurves: []
  m_FloatCurves: []
  m_PPtrCurves:
  - curve:
    - time: 0
      value: {fileID: 21300000, guid: c17ae98b106cd934e91133a247cf580d, type: 3}
    - time: 0.033333335
      value: {fileID: 21300000, guid: 5124e01ace073704589b84a7a819b315, type: 3}
    - time: 0.06666667
      value: {fileID: 21300000, guid: e641339d350863143a524b7e2a149a09, type: 3}
    - time: 0.1
      value: {fileID: 21300000, guid: 6892078ad6b53d941b6a7ad069cd90d3, type: 3}
    - time: 0.13333334
      value: {fileID: 21300000, guid: d224e5aa92ece6e4ea7188546b2ae671, type: 3}
    - time: 0.16666667
      value: {fileID: 21300000, guid: 2f22e159538ae0a4ba4295dd2617809d, type: 3}
    - time: 0.2
      value: {fileID: 21300000, guid: a7185d1f75f408f49960d9e00486e49e, type: 3}
    - time: 0.23333333
      value: {fileID: 21300000, guid: 8996155cabf35da4089285a07a09df46, type: 3}
    - time: 0.26666668
      value: {fileID: 21300000, guid: 618741f82ac116845b9ff1086175440b, type: 3}
    - time: 0.3
      value: {fileID: 21300000, guid: 3b3c4d7c0d5f51b48a397e764b0f917e, type: 3}
    - time: 0.33333334
      value: {fileID: 21300000, guid: cac147de6edbd8642bb5d37fe57c9a20, type: 3}
    - time: 0.36666667
      value: {fileID: 21300000, guid: 20dd07c030bc43946955c9c59606294b, type: 3}
    - time: 0.4
      value: {fileID: 21300000, guid: c53414c4ad92dc848a06b79bc5da8427, type: 3}
    - time: 0.43333334
      value: {fileID: 21300000, guid: 33a9ada4f0e55694198b0cc3b79cf796, type: 3}
    - time: 0.46666667
      value: {fileID: 21300000, guid: 7bba0db9dbc9cf848abebee45a33d9ed, type: 3}
    attribute: m_Sprite
    path: 
    classID: 212
    script: {fileID: 0}
  m_SampleRate: 60
  m_WrapMode: 0
  m_Bounds:
    m_Center: {x: 0, y: 0, z: 0}
    m_Extent: {x: 0, y: 0, z: 0}
  m_ClipBindingConstant:
    genericBindings:
    - serializedVersion: 2
      path: 0
      attribute: 0
      script: {fileID: 0}
      typeID: 212
      customType: 23
      isPPtrCurve: 1
    pptrCurveMapping:
    - {fileID: 21300000, guid: c17ae98b106cd934e91133a247cf580d, type: 3}
    - {fileID: 21300000, guid: 5124e01ace073704589b84a7a819b315, type: 3}
    - {fileID: 21300000, guid: e641339d350863143a524b7e2a149a09, type: 3}
    - {fileID: 21300000, guid: 6892078ad6b53d941b6a7ad069cd90d3, type: 3}
    - {fileID: 21300000, guid: d224e5aa92ece6e4ea7188546b2ae671, type: 3}
    - {fileID: 21300000, guid: 2f22e159538ae0a4ba4295dd2617809d, type: 3}
    - {fileID: 21300000, guid: a7185d1f75f408f49960d9e00486e49e, type: 3}
    - {fileID: 21300000, guid: 8996155cabf35da4089285a07a09df46, type: 3}
    - {fileID: 21300000, guid: 618741f82ac116845b9ff1086175440b, type: 3}
    - {fileID: 21300000, guid: 3b3c4d7c0d5f51b48a397e764b0f917e, type: 3}
    - {fileID: 21300000, guid: cac147de6edbd8642bb5d37fe57c9a20, type: 3}
    - {fileID: 21300000, guid: 20dd07c030bc43946955c9c59606294b, type: 3}
    - {fileID: 21300000, guid: c53414c4ad92dc848a06b79bc5da8427, type: 3}
    - {fileID: 21300000, guid: 33a9ada4f0e55694198b0cc3b79cf796, type: 3}
    - {fileID: 21300000, guid: 7bba0db9dbc9cf848abebee45a33d9ed, type: 3}
  m_AnimationClipSettings:
    serializedVersion: 2
    m_AdditiveReferencePoseClip: {fileID: 0}
    m_AdditiveReferencePoseTime: 0
    m_StartTime: 0
    m_StopTime: 0.48333335
    m_OrientationOffsetY: 0
    m_Level: 0
    m_CycleOffset: 0
    m_HasAdditiveReferencePose: 0
    m_LoopTime: 0
    m_LoopBlend: 0
    m_LoopBlendOrientation: 0
    m_LoopBlendPositionY: 0
    m_LoopBlendPositionXZ: 0
    m_KeepOriginalOrientation: 0
    m_KeepOriginalPositionY: 1
    m_KeepOriginalPositionXZ: 0
    m_HeightFromFeet: 0
    m_Mirror: 0
  m_EditorCurves: []
  m_EulerEditorCurves: []
  m_HasGenericRootTransform: 0
  m_HasMotionFloatCurves: 0
  m_Events: []
