%YAML 1.1
%TAG !u! tag:unity3d.com,2011:
--- !u!74 &7400000
AnimationClip:
  m_ObjectHideFlags: 0
  m_CorrespondingSourceObject: {fileID: 0}
  m_PrefabInstance: {fileID: 0}
  m_PrefabAsset: {fileID: 0}
  m_Name: Idle
  serializedVersion: 6
  m_Legacy: 0
  m_Compressed: 0
  m_UseHighQualityCurve: 1
  m_RotationCurves: []
  m_CompressedRotationCurves: []
  m_EulerCurves: []
  m_PositionCurves: []
  m_ScaleCurves: []
  m_FloatCurves: []
  m_PPtrCurves:
  - curve:
    - time: 0
      value: {fileID: 21300000, guid: be1c04c16c06d3d45bec63df43cee2e7, type: 3}
    - time: 0.033333335
      value: {fileID: 21300000, guid: c1b6bff717bde474b936167879d979f0, type: 3}
    - time: 0.06666667
      value: {fileID: 21300000, guid: e8d3422b1f53ec345bbc0f5ae2cf6c82, type: 3}
    - time: 0.1
      value: {fileID: 21300000, guid: c0539744fbfaacc4fb1ebbd000286b45, type: 3}
    - time: 0.13333334
      value: {fileID: 21300000, guid: 629b1da4c95ceee4d949f19477e1c06f, type: 3}
    - time: 0.16666667
      value: {fileID: 21300000, guid: 903105da9125809458159e6c1b13a9e4, type: 3}
    - time: 0.2
      value: {fileID: 21300000, guid: 719cf919fda737c40abf6b669f5bcd69, type: 3}
    - time: 0.23333333
      value: {fileID: 21300000, guid: 87d00e2af938c574991e0038fa129d13, type: 3}
    - time: 0.26666668
      value: {fileID: 21300000, guid: f1a4f65aeff36b24dab69b8ea0cae52e, type: 3}
    - time: 0.3
      value: {fileID: 21300000, guid: 8afce792e7813f94e971623ab495c05e, type: 3}
    - time: 0.33333334
      value: {fileID: 21300000, guid: 43a33229674ded945b8a650643660036, type: 3}
    - time: 0.36666667
      value: {fileID: 21300000, guid: 3b8acbe9b4160214592b0c1025902dfa, type: 3}
    attribute: m_Sprite
    path: 
    classID: 212
    script: {fileID: 0}
  m_SampleRate: 60
  m_WrapMode: 0
  m_Bounds:
    m_Center: {x: 0, y: 0, z: 0}
    m_Extent: {x: 0, y: 0, z: 0}
  m_ClipBindingConstant:
    genericBindings:
    - serializedVersion: 2
      path: 0
      attribute: 0
      script: {fileID: 0}
      typeID: 212
      customType: 23
      isPPtrCurve: 1
    pptrCurveMapping:
    - {fileID: 21300000, guid: be1c04c16c06d3d45bec63df43cee2e7, type: 3}
    - {fileID: 21300000, guid: c1b6bff717bde474b936167879d979f0, type: 3}
    - {fileID: 21300000, guid: e8d3422b1f53ec345bbc0f5ae2cf6c82, type: 3}
    - {fileID: 21300000, guid: c0539744fbfaacc4fb1ebbd000286b45, type: 3}
    - {fileID: 21300000, guid: 629b1da4c95ceee4d949f19477e1c06f, type: 3}
    - {fileID: 21300000, guid: 903105da9125809458159e6c1b13a9e4, type: 3}
    - {fileID: 21300000, guid: 719cf919fda737c40abf6b669f5bcd69, type: 3}
    - {fileID: 21300000, guid: 87d00e2af938c574991e0038fa129d13, type: 3}
    - {fileID: 21300000, guid: f1a4f65aeff36b24dab69b8ea0cae52e, type: 3}
    - {fileID: 21300000, guid: 8afce792e7813f94e971623ab495c05e, type: 3}
    - {fileID: 21300000, guid: 43a33229674ded945b8a650643660036, type: 3}
    - {fileID: 21300000, guid: 3b8acbe9b4160214592b0c1025902dfa, type: 3}
  m_AnimationClipSettings:
    serializedVersion: 2
    m_AdditiveReferencePoseClip: {fileID: 0}
    m_AdditiveReferencePoseTime: 0
    m_StartTime: 0
    m_StopTime: 0.38333336
    m_OrientationOffsetY: 0
    m_Level: 0
    m_CycleOffset: 0
    m_HasAdditiveReferencePose: 0
    m_LoopTime: 1
    m_LoopBlend: 0
    m_LoopBlendOrientation: 0
    m_LoopBlendPositionY: 0
    m_LoopBlendPositionXZ: 0
    m_KeepOriginalOrientation: 0
    m_KeepOriginalPositionY: 1
    m_KeepOriginalPositionXZ: 0
    m_HeightFromFeet: 0
    m_Mirror: 0
  m_EditorCurves: []
  m_EulerEditorCurves: []
  m_HasGenericRootTransform: 0
  m_HasMotionFloatCurves: 0
  m_Events: []
